<?xml version="1.0" encoding="UTF-8"?>
<!DOCTYPE svg PUBLIC "-//W3C//DTD SVG 1.1//EN" "http://www.w3.org/Graphics/SVG/1.1/DTD/svg11.dtd">
<svg version="1.1" id="Layer_1" xmlns="http://www.w3.org/2000/svg" x="0" y="0" width="24" height="24" viewBox="0 0 24 24" xml:space="preserve">
  <style>
    .st0{fill:none;stroke:#282828;stroke-linecap:round;stroke-linejoin:round;stroke-miterlimit:10}.st1{fill:none;stroke:#282828;stroke-linecap:round;stroke-linejoin:round}
  </style>
  <path class="st0" d="M14 3.7V.4h-4M19.5 6.8l1.9-2.2L19.5 3l-1.9 2.3M4.5 6.8L2.6 4.6 4.5 3l1.9 2.3"/>
  <path class="st0" d="M2 13.6c0 5.5 4.5 10 10 10s10-4.5 10-10-4.5-10-10-10"/>
  <path class="st0" d="M4.3 13.6H12V5.9"/>
  <path class="st1" d="M12 5.9"/>
  <path d="M10.5 6c-3.3.7-5.8 3.4-6.1 6.8" fill="none" stroke="#282828" stroke-linecap="round" stroke-linejoin="round" stroke-dasharray="0,2.0772"/>
  <path class="st1" d="M4.3 13.6"/>
</svg>