<?xml version="1.0" encoding="UTF-8"?>
<!DOCTYPE svg PUBLIC "-//W3C//DTD SVG 1.1//EN" "http://www.w3.org/Graphics/SVG/1.1/DTD/svg11.dtd">
<svg version="1.1" id="Layer_1" xmlns="http://www.w3.org/2000/svg" x="0" y="0" width="24" height="24" viewBox="0 0 24 24" xml:space="preserve">
  <style>
    .st0{fill:none;stroke:#282828;stroke-linecap:round;stroke-miterlimit:10}
  </style>
  <path class="st0" d="M13.4 14.1h5.3c2.6 0 4.8-2.1 4.8-4.8s-2.1-4.8-4.8-4.8c-.4 0-.9.1-1.3.2-.9-2.3-3.1-4-5.7-4-3 0-5.5 2.1-6 5-.3 0-.5-.1-.8-.1C2.5 5.6.5 7.5.5 9.9s2 4.3 4.4 4.3h5.6"/>
  <path class="st0" d="M13.3 3.2c1 .4 1.7 1.2 2.1 2.2.4 1.1 1.5 1.6 2.6 1.3.8-.2 1.6-.1 2.3.4.4.3.7.7.9 1.2.6 1.8-.8 3.5-2.5 3.5H12M12 12.1v11.2M12 12.1v11.2M9.7 15.5v6M7.5 15.5v4.3M5.2 15.5V18M9.7 15.5v6M12 2.6"/>
  <path fill="none" stroke="#282828" stroke-linecap="round" stroke-miterlimit="10" stroke-dasharray="0,1.8605" d="M12 4v7.3"/>
  <path class="st0" d="M9.7 2.9"/>
  <path fill="none" stroke="#282828" stroke-linecap="round" stroke-miterlimit="10" stroke-dasharray="0,2.1068" d="M9.7 4.4v6.8"/>
  <path class="st0" d="M9.7 12"/>
  <g>
    <path class="st0" d="M7.5 4.8"/>
    <path fill="none" stroke="#282828" stroke-linecap="round" stroke-miterlimit="10" stroke-dasharray="0,1.9943" d="M7.5 6.3v5"/>
    <path class="st0" d="M7.5 12"/>
  </g>
  <g>
    <path class="st0" d="M5.2 5.6"/>
    <path fill="none" stroke="#282828" stroke-linecap="round" stroke-miterlimit="10" stroke-dasharray="0,2.2067" d="M5.2 7.2v4"/>
    <path class="st0" d="M5.2 12"/>
  </g>
  <g>
    <path class="st0" d="M3 7.8"/>
    <path fill="none" stroke="#282828" stroke-linecap="round" stroke-miterlimit="10" stroke-dasharray="0,1.7361" d="M3 9.1v1.8"/>
    <path class="st0" d="M3 11.6"/>
  </g>
</svg>