<?xml version="1.0" encoding="UTF-8"?>
<!DOCTYPE svg PUBLIC "-//W3C//DTD SVG 1.1//EN" "http://www.w3.org/Graphics/SVG/1.1/DTD/svg11.dtd">
<svg version="1.1" id="Layer_1" xmlns="http://www.w3.org/2000/svg" x="0" y="0" width="30" height="30" viewBox="0 0 30 30" xml:space="preserve">
  <style>
    .st1{fill-rule:evenodd;clip-rule:evenodd;fill:#FFFFFF}
  </style>
  <path d="M17.9 23c.2-1.9.8-3.4 1.7-5 .8-1.3 1.7-2.4 2.5-3.7.8-1.3 1.2-2.5 1.2-4 0-4.6-3.7-8.4-8.4-8.4s-8.4 3.7-8.4 8.4c0 1.5.4 2.7 1.2 4 .8 1.3 1.7 2.4 2.5 3.7 1 1.6 1.6 3.2 1.7 5h6zM15 24.1h-3c-.6 0-.9.2-1-.9-.5-5.9-5.5-7.5-5.5-12.9C5.5 5.1 9.7.9 14.9.9s9.4 4.2 9.4 9.4c0 5.5-5 7.1-5.5 12.9-.1 1-.4.9-1 .9H15z" fill-rule="evenodd" clip-rule="evenodd" fill="#FFF" stroke="#FFF" stroke-miterlimit="10"/>
  <path class="st1" d="M11.8 24.9h6.4c.3 0 .5.2.5.5s-.2.5-.5.5h-6.4c-.3 0-.5-.2-.5-.5.1-.3.3-.5.5-.5M12 26.5h6c.3 0 .5.2.5.5s-.2.5-.5.5h-6c-.3 0-.5-.2-.5-.5s.3-.5.5-.5M17.1 28.1c-.4.7-1.1 1.1-2.1 1.1s-1.7-.5-2.1-1.1h4.2z"/>
  <path d="M16.4 3.4c2.3.8 3.8 2.2 4.6 3.8.9 1.7 1 3.8.3 6-.3.5-1.2.2-1-.3.6-1.9.5-3.7-.2-5.2S18 5.1 16 4.3c-.6-.2-.2-1.1.4-.9" fill="#FFF"/>
</svg>